{
  "produtos": [
    {
      "id": "62s6c2s621d6g2",
      "descricao": "TV samngung 42",
      "quantidade": 7,
      "valor": 1299.99
    },
    {
      "id": "sa54f5d45a1f514dh",
      "descricao": "Pen Drive 32GB",
      "quantidade": 2,
      "valor": 65.99
    },
    {
      "id": "s4d5g145d151fh",
      "descricao": "IPhone 6S 128GB",
      "quantidade": 3,
      "valor": 1725.99
    }
  ],
  "empresas": [
    {
      "nome": "Itaú Unibanco",
      "CNPJ": "32.651.541-0001/21"
    },
    {
      "nome": "Globo",
      "CNPJ": "54.5451.541-0001/01"
    },
    {
      "nome": "Globo",
      "CNPJ": "63.157.541-0008/25"
    }
  ],
  "contratos": [
      {
        "produtos": [ {
                        "nomeProduto": "Itaucard",
                        "valor": 2633.99
                    } ] 
      }
    ]
}